A Quick Guide to Conducting a Simulation Study – Statistics 243 Fall 2023
…
The unnest() function will unpack our dataframes and put everything together, all nice like. See (hard to read) R for DS Chapter 25.4.

results <- unnest( results )

Warning: `cols` is now required when using `unnest()`.
ℹ Please use `cols = c(results)`.

results

# A tibble: 48 × 6
       n    df estimator   RMSE      bias     SE
   <dbl> <dbl> <fct>      <dbl>     <dbl>  <dbl>
 1    10     3 mean      0.306  -0.0120   0.306 
 2    10     3 trim.mean 0.252  -0.00971  0.252 
 3    10     3 median    0.256  -0.00554  0.256 
 4    50     3 mean      0.140  -0.00332  0.140 
 5    50     3 trim.mean 0.105   0.000498 0.105 
 6    50     3 median    0.114   0.00123  0.114 
 7   250     3 mean      0.0648 -0.00331  0.0647
 8   250     3 trim.mean 0.0473 -0.00244  0.0473
 9   250     3 median    0.0500 -0.00130  0.0500
10  1250     3 mean      0.0291 -0.000686 0.0291
# ℹ 38 more rows
…
